1.00e+00    1.00e+01    1.00e+00
1.00e+00    1.00e+02    1.00e+00
1.00e+00    1.00e+03    1.00e+00
1.00e+00    1.00e+04    1.00e+00
1.00e+00    1.00e+05    1.00e+00
1.00e+00    1.00e+06    1.00e+00
1.00e+00    1.00e+07    1.00e+00
1.00e+00    1.00e+08    1.00e+00
1.00e+00    1.00e+09    1.00e+00
1.00e+00    1.00e+10    1.00e+00
1.00e+00    1.00e+11    1.00e+00
1.00e+00    1.00e+12    1.00e+00
1.00e+00    1.00e+13    1.00e+00
1.00e+00    1.00e+14    1.00e+00
1.00e+00    1.00e+15    1.00e+00
