-1.0102051443364381e-01,    -9.8989794855663558e+00
-1.0001000200050014e-02,    -9.9989998999799951e+01
-1.0000010000020001e-03,    -9.9999899999900003e+02
-1.0000000100000001e-04,    -9.9999998999999989e+03
-1.0000000001000001e-05,    -9.9999999989999997e+04
-1.0000000000010001e-06,    -9.9999999999899999e+05
-1.0000000000000100e-07,    -9.9999999999998994e+06
-1.0000000000000000e-08,    -1.0000000000000000e+08
-1.0000000000000001e-09,    -1.0000000000000000e+09
-1.0000000000000000e-10,    -1.0000000000000000e+10
-9.9999999999999994e-12,    -1.0000000000000000e+11
-9.9999999999999998e-13,    -1.0000000000000000e+12
-1.0000000000000000e-13,    -1.0000000000000000e+13
-1.0000000000000000e-14,    -1.0000000000000000e+14
-1.0000000000000001e-15,    -1.0000000000000000e+15
